Waveforms/GPIO_Bring_Up.vcd
$date
        2024-Feb-10 14:06:37
$end
$version
        Vivado v2023.1 (64-bit)
$end
$timescale
        1ps
$end
$scope module dut $end
$var reg 1 " Microblaze_i/system_ila_0/inst/probe0_1 $end
$var reg 4 # Microblaze_i/system_ila_0/inst/SLOT_0_GPIO_tri_i_1 [3:0] $end
$var reg 4 ' Microblaze_i/system_ila_0/inst/SLOT_0_GPIO_tri_o_1 [3:0] $end
$var reg 4 + Microblaze_i/system_ila_0/inst/SLOT_0_GPIO_tri_t_1 [3:0] $end
$var reg 1 / Microblaze_i/system_ila_0/inst/SLOT_1_SPI_io0_i_1 $end
$var reg 1 0 Microblaze_i/system_ila_0/inst/SLOT_1_SPI_io0_o_1 $end
$var reg 1 1 Microblaze_i/system_ila_0/inst/SLOT_1_SPI_io0_t_1 $end
$var reg 1 2 Microblaze_i/system_ila_0/inst/SLOT_1_SPI_io1_i_1 $end
$var reg 1 3 Microblaze_i/system_ila_0/inst/SLOT_1_SPI_io1_o_1 $end
$var reg 1 4 Microblaze_i/system_ila_0/inst/SLOT_1_SPI_io1_t_1 $end
$var reg 1 5 Microblaze_i/system_ila_0/inst/SLOT_1_SPI_sck_i_1 $end
$var reg 1 6 Microblaze_i/system_ila_0/inst/SLOT_1_SPI_sck_o_1 $end
$var reg 1 7 Microblaze_i/system_ila_0/inst/SLOT_1_SPI_sck_t_1 $end
$var reg 1 8 Microblaze_i/system_ila_0/inst/SLOT_1_SPI_ss_i_1 $end
$var reg 1 9 Microblaze_i/system_ila_0/inst/SLOT_1_SPI_ss_o_1 $end
$var reg 1 : Microblaze_i/system_ila_0/inst/SLOT_1_SPI_ss_t_1 $end
$var reg 1 ; Microblaze_i/system_ila_0/inst/SLOT_2_UART_rxd_1 $end
$var reg 1 < Microblaze_i/system_ila_0/inst/SLOT_2_UART_txd_1 $end
$var reg 2 = Microblaze_i/system_ila_0/inst/net_slot_3_axi_ar_cnt [1:0] $end
$var reg 32 ? Microblaze_i/system_ila_0/inst/net_slot_3_axi_araddr [31:0] $end
$var reg 3 _ Microblaze_i/system_ila_0/inst/net_slot_3_axi_arprot [2:0] $end
$var reg 2 b Microblaze_i/system_ila_0/inst/net_slot_3_axi_aw_cnt [1:0] $end
$var reg 32 d Microblaze_i/system_ila_0/inst/net_slot_3_axi_awaddr [31:0] $end
$var reg 3 &" Microblaze_i/system_ila_0/inst/net_slot_3_axi_awprot [2:0] $end
$var reg 2 )" Microblaze_i/system_ila_0/inst/net_slot_3_axi_b_cnt [1:0] $end
$var reg 2 +" Microblaze_i/system_ila_0/inst/net_slot_3_axi_bresp [1:0] $end
$var reg 2 -" Microblaze_i/system_ila_0/inst/net_slot_3_axi_r_cnt [1:0] $end
$var reg 32 /" Microblaze_i/system_ila_0/inst/net_slot_3_axi_rdata [31:0] $end
$var reg 2 O" Microblaze_i/system_ila_0/inst/net_slot_3_axi_rresp [1:0] $end
$var reg 32 Q" Microblaze_i/system_ila_0/inst/net_slot_3_axi_wdata [31:0] $end
$var reg 4 q" Microblaze_i/system_ila_0/inst/net_slot_3_axi_wstrb [3:0] $end
$var reg 2 u" Microblaze_i/system_ila_0/inst/net_slot_3_axi_aw_ctrl [1:0] $end
$var reg 1 w" Microblaze_i/system_ila_0/inst/net_slot_3_axi_awvalid $end
$var reg 1 x" Microblaze_i/system_ila_0/inst/net_slot_3_axi_awready $end
$var reg 2 y" Microblaze_i/system_ila_0/inst/net_slot_3_axi_w_ctrl [1:0] $end
$var reg 1 {" Microblaze_i/system_ila_0/inst/net_slot_3_axi_wvalid $end
$var reg 1 |" Microblaze_i/system_ila_0/inst/net_slot_3_axi_wready $end
$var reg 1 }" Microblaze_i/system_ila_0/inst/net_slot_3_axi_bvalid $end
$var reg 2 ~" Microblaze_i/system_ila_0/inst/net_slot_3_axi_b_ctrl [1:0] $end
$var reg 1 "# Microblaze_i/system_ila_0/inst/net_slot_3_axi_bready $end
$var reg 1 ## Microblaze_i/system_ila_0/inst/net_slot_3_axi_arvalid $end
$var reg 2 $# Microblaze_i/system_ila_0/inst/net_slot_3_axi_ar_ctrl [1:0] $end
$var reg 1 &# Microblaze_i/system_ila_0/inst/net_slot_3_axi_arready $end
$var reg 1 '# Microblaze_i/system_ila_0/inst/net_slot_3_axi_rvalid $end
$var reg 2 (# Microblaze_i/system_ila_0/inst/net_slot_3_axi_r_ctrl [1:0] $end
$var reg 1 *# Microblaze_i/system_ila_0/inst/net_slot_3_axi_rready $end
$var reg 1 +# Microblaze_i/system_ila_0/inst/net_slot_3_apc_pc_asserted $end
$var reg 3 ,# AR_Channel__i1_s3___microblaze_0_M_AXI_DP_ [2:0] $end
$var reg 3 /# AW_Channel__i1_s3___microblaze_0_M_AXI_DP_ [2:0] $end
$var reg 3 2# B_Channel__i1_s3___microblaze_0_M_AXI_DP_ [2:0] $end
$var reg 3 5# Interface__i1_s3___microblaze_0_M_AXI_DP_ [2:0] $end
$var reg 3 8# R_Channel__i1_s3___microblaze_0_M_AXI_DP_ [2:0] $end
$var reg 3 ;# W_Channel__i1_s3___microblaze_0_M_AXI_DP_ [2:0] $end
$var reg 16 ># ila_1___slot_3___microblaze_0_M_AXI_DP___Read_Transactions_0 [15:0] $end
$var reg 16 N# ila_1___slot_3___microblaze_0_M_AXI_DP___Write_Transactions_0 [15:0] $end
$var reg 1 ^# _TRIGGER $end
$var reg 1 _# _WINDOW $end
$var reg 1 `# _GAP $end
$upscope $end
$enddefinitions $end
#0
$dumpvars
0"
b0 #
b0 '
b0 +
1/
10
11
12
13
14
15
06
17
18
19
1:
1;
1<
b0 =
b11000000000000010010010010111100 ?
b0 _
b0 b
b11000000000000010010010010111100 d
b0 &"
b0 )"
b0 +"
b0 -"
b0 /"
b0 O"
b0 Q"
b1111 q"
b0 u"
0w"
0x"
b0 y"
0{"
0|"
0}"
b10 ~"
1"#
0##
b0 $#
0&#
0'#
b10 (#
1*#
0+#
b0 ,#
b0 /#
b0 2#
b0 5#
b0 8#
b0 ;#
b0 >#
b0 N#
0^#
1_#
0`#
$end
#6
b10111110001000110000000001101000 /"
#7
b0 /"
#15
b10101000011001100000000000000001 /"
#16
b0 /"
#24
b10111110000000110000000000011000 /"
#25
b0 /"
#33
b10101000011001100000000000000010 /"
#34
b0 /"
#42
b10111100001000110000000000101100 /"
#43
b0 /"
#51
b11101000011001010000000000000000 /"
#52
b0 /"
#56
b11000000000000010010010000011100 ?
b11000000000000010010010000011100 d
b11 Q"
1##
b1 $#
b10 ,#
b1 5#
b1 >#
#60
b110000110001101111111111111111 /"
#61
b0 /"
#63
b11 $#
1&#
#64
b1 =
b1 -"
0##
b0 $#
0&#
b0 ,#
b0 5#
#67
b1000000000000000000000000000000 /"
1'#
b11 (#
b1 5#
b111 8#
#68
b0 =
b0 -"
b0 /"
0'#
b10 (#
b0 5#
b0 8#
b0 >#
#74
b1100100110001100000010000000011 /"
#75
b0 /"
#83
b11011000111000110011000000000000 /"
#84
b0 /"
#88
b1000000000000000000000000000000 ?
b1000000000000000000000000000000 d
b1 Q"
b1 u"
1w"
b1 y"
1{"
b10 /#
b1 5#
b1 N#
#92
b11101001111000010000000000000000 /"
#93
b0 /"
#95
b11 u"
1x"
#96
b1 b
b1 )"
b1 /"
b0 u"
0w"
0x"
b0 /#
b0 5#
#100
b1 #
b1 '
1^#
#101
b11 y"
1|"
b1 5#
b1 ;#
#102
b0 y"
0{"
0|"
b0 5#
b0 ;#
#106
1}"
b11 ~"
b10 2#
b1 5#
#107
b0 b
b0 )"
0}"
b10 ~"
b0 2#
b0 5#
b0 N#
#110
b11000000000000010011000010010000 ?
b11000000000000010011000010010000 d
b0 /"
b11000000000000001110101100000000 Q"
1##
b1 $#
b10 ,#
b1 5#
b10 >#
#113
b10110110000011110000000000001000 /"
#114
b0 /"
#116
b11 $#
1&#
#117
b1 =
b1 -"
0##
b0 $#
0&#
b0 ,#
b0 5#
#120
b11000000000000001110101100000000 /"
1'#
b11 (#
b1 5#
b111 8#
#121
b0 =
b0 -"
b0 /"
0'#
b10 (#
b0 5#
b0 8#
b0 >#
#127
b110000001000010000000000011100 /"
#128
b0 /"
#136
b10110000000000001100000000000001 /"
#137
b0 /"
#145
b110000110000000000000000000001 /"
#146
b0 /"
#154
b10110000000000001100000000000001 /"
#155
b0 /"
#163
b110000101000000010010000011100 /"
#164
b0 /"
#172
b10110000000000000000000000000000 /"
#173
b0 /"
#181
b10111001111101000000100000010000 /"
#182
b0 /"
#190
b10000000000000000000000000000000 /"
#191
b0 /"
#199
b11111000011100110000000000100000 /"
#200
b0 /"
#208
b110000001000011111111111100100 /"
#209
b0 /"
#217
b10111110000001010000000010100100 /"
#218
b0 /"
#226
b11111001111000010000000000000000 /"
#227
b0 /"
#231
b11000000000000001110101100011000 Q"
b1 u"
1w"
b1 y"
1{"
b10 /#
b1 5#
b10 N#
#235
b11101000011001010000000000000100 /"
#236
b0 /"
#238
b11 u"
1x"
b11 y"
1|"
b1 ;#
#239
b1 b
b1 )"
b0 u"
0w"
0x"
b0 y"
0{"
0|"
1}"
b11 ~"
b0 /#
b10 2#
b0 ;#
#240
b0 b
b0 )"
0}"
b10 ~"
b0 2#
b0 5#
b0 N#
#243
b11000000000000010010010000100000 ?
b11000000000000010010010000100000 d
b1000000000000000000000000000000 Q"
1##
b1 $#
b10 ,#
b1 5#
b11 >#
#246
b10110000000000001100000000000001 /"
#247
b0 /"
#249
b11 $#
1&#
#250
b1 =
b1 -"
0##
b0 $#
0&#
b0 ,#
b0 5#
#253
b10001000100010001000100010001 /"
1'#
b11 (#
b1 5#
b111 8#
#254
b0 =
b0 -"
b0 /"
0'#
b10 (#
b0 5#
b0 8#
b0 >#
#260
b11111000000000000010010010111100 /"
#261
b0 /"
#265
b11000000000000010010010010111100 ?
b11000000000000010010010010111100 d
b0 Q"
b1 u"
1w"
b1 y"
1{"
b10 /#
b1 5#
b11 N#
#269
b10110000000000000001000100010001 /"
#270
b0 /"
#272
b11 u"
1x"
b11 y"
1|"
b1 ;#
#273
b1 b
b1 )"
b0 u"
0w"
0x"
b0 y"
0{"
0|"
1}"
b11 ~"
b0 /#
b10 2#
b0 ;#
#274
b0 b
b0 )"
0}"
b10 ~"
b0 2#
b0 5#
b0 N#
#280
b10101000011000110001000100010001 /"
#281
b0 /"
#289
b10111110001000110000000001101100 /"
#290
b0 /"
#298
b10101000011001100000000000000001 /"
#299
b0 /"
#307
b10111110000000110000000000011000 /"
#308
b0 /"
#316
b10101000011001100000000000000010 /"
#317
b0 /"
#325
b10111100001000110000000000101100 /"
#326
b0 /"
#334
b11101000011001010000000000000000 /"
#335
b0 /"
#339
b11000000000000010010010000011100 ?
b11000000000000010010010000011100 d
b11 Q"
1##
b1 $#
b10 ,#
b1 5#
b1 >#
#343
b110000110001101111111111111111 /"
#344
b0 /"
#346
b11 $#
1&#
#347
b1 =
b1 -"
0##
b0 $#
0&#
b0 ,#
b0 5#
#350
b1000000000000000000000000000000 /"
1'#
b11 (#
b1 5#
b111 8#
#351
b0 =
b0 -"
b0 /"
0'#
b10 (#
b0 5#
b0 8#
b0 >#
#357
b1100100110001100000010000000011 /"
#358
b0 /"
#366
b11101001111000010000000000000000 /"
#367
b0 /"
#371
b11000000000000010011000010010000 ?
b11000000000000010011000010010000 d
b11000000000000001110101100011000 Q"
1##
b1 $#
b10 ,#
b1 5#
b10 >#
#375
b11001000011000110011000000000000 /"
#376
b0 /"
#378
b11 $#
1&#
#379
b1 =
b1 -"
0##
b0 $#
0&#
b0 ,#
b0 5#
#382
b11000000000000001110101100011000 /"
1'#
b11 (#
b1 5#
b111 8#
#383
b0 =
b0 -"
b0 /"
0'#
b10 (#
b0 5#
b0 8#
b0 >#
#386
b1000000000000000000000000000000 ?
b1000000000000000000000000000000 d
b1000000000000000000000000000000 Q"
1##
b1 $#
b10 ,#
b1 5#
b100 >#
#389
b10110110000011110000000000001000 /"
#390
b0 /"
#392
b11 $#
1&#
#393
b1 =
b1 -"
b1 /"
0##
b0 $#
0&#
b0 ,#
b0 5#
#402
1'#
b11 (#
b1 5#
b111 8#
#403
b0 =
b0 -"
b0 /"
0'#
b10 (#
b0 5#
b0 8#
b0 >#
#409
b110000001000010000000000011100 /"
#410
b0 /"
#418
b10110000000000001100000000000001 /"
#419
b0 /"
#427
b11111000011100110000000000100000 /"
#428
b0 /"
#432
b11000000000000010011000011001100 ?
b11000000000000010011000011001100 d
b1 Q"
b1 u"
1w"
b1 y"
1{"
b10 /#
b1 5#
b100 N#
#436
b11101000011100110000000000100000 /"
#437
b0 /"
#439
b11 u"
1x"
b11 y"
1|"
b1 ;#
#440
b1 b
b1 )"
b0 u"
0w"
0x"
b0 y"
0{"
0|"
1}"
b11 ~"
b0 /#
b10 2#
b0 ;#
#441
b0 b
b0 )"
0}"
b10 ~"
b0 2#
b0 5#
b0 N#
#444
1##
b1 $#
b10 ,#
b1 5#
b101 >#
#447
b10101000011000110000000000000001 /"
#448
b0 /"
#450
b11 $#
1&#
#451
b1 =
b1 -"
0##
b0 $#
0&#
b0 ,#
b0 5#
#454
b1 /"
1'#
b11 (#
b1 5#
b111 8#
#455
b0 =
b0 -"
b0 /"
0'#
b10 (#
b0 5#
b0 8#
b0 >#
#461
b10111100000000110000000000001100 /"
#462
b0 /"
#470
b110000011000000000000000000001 /"
#471
b0 /"
#479
b11111000000100110000000000100100 /"
#480
b0 /"
#484
b11000000000000010011000011010000 ?
b11000000000000010011000011010000 d
b0 Q"
b1 u"
1w"
b1 y"
1{"
b10 /#
b1 5#
b101 N#
#488
b10111000000000000000000000010000 /"
#489
b0 /"
#491
b11 u"
1x"
b11 y"
1|"
b1 ;#
#492
b1 b
b1 )"
b0 u"
0w"
0x"
b0 y"
0{"
0|"
1}"
b11 ~"
b0 /#
b10 2#
b0 ;#
#493
b0 b
b0 )"
0}"
b10 ~"
b0 2#
b0 5#
b0 N#
#499
b11101000011100110000000000100100 /"
#500
b0 /"
#508
b11101000100100110000000000100100 /"
#509
b0 /"
#513
b1010 Q"
1##
b1 $#
b10 ,#
b1 5#
b110 >#
#517
b110000011000000000000000001001 /"
#518
b0 /"
#520
b11 $#
1&#
#521
b1 =
b1 -"
0##
b0 $#
0&#
b0 ,#
b0 5#
#524
1'#
b11 (#
b1 5#
b111 8#
#525
b0 =
b0 -"
0'#
b10 (#
b0 5#
b0 8#
b0 >#
#531
b10110010001000001100000000001 /"
#532
b0 /"
#540
b10111100101100101111111111101000 /"
#541
b0 /"
#549
b10000111000000000000000000000 /"
#550
b0 /"
#558
b11101000011100110000000000100100 /"
#559
b0 /"
#563
b1001 Q"
1##
b1 $#
b10 ,#
b1 5#
b110 >#
#567
b110000011000110000000000000001 /"
#568
b0 /"
#570
b11 $#
1&#
#571
b1 =
b1 -"
0##
b0 $#
0&#
b0 ,#
b0 5#
#574
1'#
b11 (#
b1 5#
b111 8#
#575
b0 =
b0 -"
0'#
b10 (#
b0 5#
b0 8#
b0 >#
#581
b11111000011100110000000000100100 /"
#582
b0 /"
#586
b1 Q"
b1 u"
1w"
b1 y"
1{"
b10 /#
b1 5#
b101 N#
#590
b11101000100100110000000000100100 /"
#591
b0 /"
#593
b11 u"
1x"
b11 y"
1|"
b1 ;#
#594
b1 b
b1 )"
b0 u"
0w"
0x"
b0 y"
0{"
0|"
1}"
b11 ~"
b0 /#
b10 2#
b0 ;#
#595
b0 b
b0 )"
0}"
b10 ~"
b0 2#
b0 5#
b0 N#
#598
b0 Q"
1##
b1 $#
b10 ,#
b1 5#
b110 >#
#601
b110000011000000000000000001001 /"
#602
b0 /"
#604
b11 $#
1&#
#605
b1 =
b1 -"
0##
b0 $#
0&#
b0 ,#
b0 5#
#608
b1 /"
1'#
b11 (#
b1 5#
b111 8#
#609
b0 =
b0 -"
b0 /"
0'#
b10 (#
b0 5#
b0 8#
b0 >#
#615
b10110010001000001100000000001 /"
#616
b0 /"
#624
b10111100101100101111111111101000 /"
#625
b0 /"
#633
b10000111000000000000000000000 /"
#634
b0 /"
#642
b11101000011100110000000000100100 /"
#643
b0 /"
#647
b1001 Q"
1##
b1 $#
b10 ,#
b1 5#
b110 >#
#651
b110000011000110000000000000001 /"
#652
b0 /"
#654
b11 $#
1&#
#655
b1 =
b1 -"
0##
b0 $#
0&#
b0 ,#
b0 5#
#658
b1 /"
1'#
b11 (#
b1 5#
b111 8#
#659
b0 =
b0 -"
b0 /"
0'#
b10 (#
b0 5#
b0 8#
b0 >#
#665
b11111000011100110000000000100100 /"
#666
b0 /"
#670
b10 Q"
b1 u"
1w"
b1 y"
1{"
b10 /#
b1 5#
b101 N#
#674
b11101000100100110000000000100100 /"
#675
b0 /"
#677
b11 u"
1x"
b11 y"
1|"
b1 ;#
#678
b1 b
b1 )"
b0 u"
0w"
0x"
b0 y"
0{"
0|"
1}"
b11 ~"
b0 /#
b10 2#
b0 ;#
#679
b0 b
b0 )"
0}"
b10 ~"
b0 2#
b0 5#
b0 N#
#682
b1 Q"
1##
b1 $#
b10 ,#
b1 5#
b110 >#
#685
b110000011000000000000000001001 /"
#686
b0 /"
#688
b11 $#
1&#
#689
b1 =
b1 -"
0##
b0 $#
0&#
b0 ,#
b0 5#
#692
b10 /"
1'#
b11 (#
b1 5#
b111 8#
#693
b0 =
b0 -"
b0 /"
0'#
b10 (#
b0 5#
b0 8#
b0 >#
#699
b10110010001000001100000000001 /"
#700
b0 /"
#708
b10111100101100101111111111101000 /"
#709
b0 /"
#717
b10000111000000000000000000000 /"
#718
b0 /"
#726
b11101000011100110000000000100100 /"
#727
b0 /"
#731
b1001 Q"
1##
b1 $#
b10 ,#
b1 5#
b110 >#
#735
b110000011000110000000000000001 /"
#736
b0 /"
#738
b11 $#
1&#
#739
b1 =
b1 -"
0##
b0 $#
0&#
b0 ,#
b0 5#
#742
b10 /"
1'#
b11 (#
b1 5#
b111 8#
#743
b0 =
b0 -"
b0 /"
0'#
b10 (#
b0 5#
b0 8#
b0 >#
#749
b11111000011100110000000000100100 /"
#750
b0 /"
#754
b11 Q"
b1 u"
1w"
b1 y"
1{"
b10 /#
b1 5#
b101 N#
#758
b11101000100100110000000000100100 /"
#759
b0 /"
#761
b11 u"
1x"
b11 y"
1|"
b1 ;#
#762
b1 b
b1 )"
b0 u"
0w"
0x"
b0 y"
0{"
0|"
1}"
b11 ~"
b0 /#
b10 2#
b0 ;#
#763
b0 b
b0 )"
0}"
b10 ~"
b0 2#
b0 5#
b0 N#
#766
b10 Q"
1##
b1 $#
b10 ,#
b1 5#
b110 >#
#769
b110000011000000000000000001001 /"
#770
b0 /"
#772
b11 $#
1&#
#773
b1 =
b1 -"
0##
b0 $#
0&#
b0 ,#
b0 5#
#776
b11 /"
1'#
b11 (#
b1 5#
b111 8#
#777
b0 =
b0 -"
b0 /"
0'#
b10 (#
b0 5#
b0 8#
b0 >#
#783
b10110010001000001100000000001 /"
#784
b0 /"
#792
b10111100101100101111111111101000 /"
#793
b0 /"
#801
b10000111000000000000000000000 /"
#802
b0 /"
#810
b11101000011100110000000000100100 /"
#811
b0 /"
#815
b1001 Q"
1##
b1 $#
b10 ,#
b1 5#
b110 >#
#819
b110000011000110000000000000001 /"
#820
b0 /"
#822
b11 $#
1&#
#823
b1 =
b1 -"
0##
b0 $#
0&#
b0 ,#
b0 5#
#826
b11 /"
1'#
b11 (#
b1 5#
b111 8#
#827
b0 =
b0 -"
b0 /"
0'#
b10 (#
b0 5#
b0 8#
b0 >#
#833
b11111000011100110000000000100100 /"
#834
b0 /"
#838
b100 Q"
b1 u"
1w"
b1 y"
1{"
b10 /#
b1 5#
b101 N#
#842
b11101000100100110000000000100100 /"
#843
b0 /"
#845
b11 u"
1x"
b11 y"
1|"
b1 ;#
#846
b1 b
b1 )"
b0 u"
0w"
0x"
b0 y"
0{"
0|"
1}"
b11 ~"
b0 /#
b10 2#
b0 ;#
#847
b0 b
b0 )"
0}"
b10 ~"
b0 2#
b0 5#
b0 N#
#850
b11 Q"
1##
b1 $#
b10 ,#
b1 5#
b110 >#
#853
b110000011000000000000000001001 /"
#854
b0 /"
#856
b11 $#
1&#
#857
b1 =
b1 -"
0##
b0 $#
0&#
b0 ,#
b0 5#
#860
b100 /"
1'#
b11 (#
b1 5#
b111 8#
#861
b0 =
b0 -"
b0 /"
0'#
b10 (#
b0 5#
b0 8#
b0 >#
#867
b10110010001000001100000000001 /"
#868
b0 /"
#876
b10111100101100101111111111101000 /"
#877
b0 /"
#885
b10000111000000000000000000000 /"
#886
b0 /"
#894
b11101000011100110000000000100100 /"
#895
b0 /"
#899
b1001 Q"
1##
b1 $#
b10 ,#
b1 5#
b110 >#
#903
b110000011000110000000000000001 /"
#904
b0 /"
#906
b11 $#
1&#
#907
b1 =
b1 -"
0##
b0 $#
0&#
b0 ,#
b0 5#
#910
b100 /"
1'#
b11 (#
b1 5#
b111 8#
#911
b0 =
b0 -"
b0 /"
0'#
b10 (#
b0 5#
b0 8#
b0 >#
#917
b11111000011100110000000000100100 /"
#918
b0 /"
#922
b101 Q"
b1 u"
1w"
b1 y"
1{"
b10 /#
b1 5#
b101 N#
#926
b11101000100100110000000000100100 /"
#927
b0 /"
#929
b11 u"
1x"
b11 y"
1|"
b1 ;#
#930
b1 b
b1 )"
b0 u"
0w"
0x"
b0 y"
0{"
0|"
1}"
b11 ~"
b0 /#
b10 2#
b0 ;#
#931
b0 b
b0 )"
0}"
b10 ~"
b0 2#
b0 5#
b0 N#
#934
b100 Q"
1##
b1 $#
b10 ,#
b1 5#
b110 >#
#937
b110000011000000000000000001001 /"
#938
b0 /"
#940
b11 $#
1&#
#941
b1 =
b1 -"
0##
b0 $#
0&#
b0 ,#
b0 5#
#944
b101 /"
1'#
b11 (#
b1 5#
b111 8#
#945
b0 =
b0 -"
b0 /"
0'#
b10 (#
b0 5#
b0 8#
b0 >#
#951
b10110010001000001100000000001 /"
#952
b0 /"
#960
b10111100101100101111111111101000 /"
#961
b0 /"
#969
b10000111000000000000000000000 /"
#970
b0 /"
#978
b11101000011100110000000000100100 /"
#979
b0 /"
#983
b1001 Q"
1##
b1 $#
b10 ,#
b1 5#
b110 >#
#987
b110000011000110000000000000001 /"
#988
b0 /"
#990
b11 $#
1&#
#991
b1 =
b1 -"
0##
b0 $#
0&#
b0 ,#
b0 5#
#994
b101 /"
1'#
b11 (#
b1 5#
b111 8#
#995
b0 =
b0 -"
b0 /"
0'#
b10 (#
b0 5#
b0 8#
b0 >#
#1001
b11111000011100110000000000100100 /"
#1002
b0 /"
#1006
b110 Q"
b1 u"
1w"
b1 y"
1{"
b10 /#
b1 5#
b101 N#
#1010
b11101000100100110000000000100100 /"
#1011
b0 /"
#1013
b11 u"
1x"
b11 y"
1|"
b1 ;#
#1014
b1 b
b1 )"
b0 u"
0w"
0x"
b0 y"
0{"
0|"
1}"
b11 ~"
b0 /#
b10 2#
b0 ;#
#1015
b0 b
b0 )"
0}"
b10 ~"
b0 2#
b0 5#
b0 N#
#1018
b101 Q"
1##
b1 $#
b10 ,#
b1 5#
b110 >#
#1021
b110000011000000000000000001001 /"
#1022
b0 /"
#1024
b11 $#
1&#
#1025
b1 =
b1 -"
0##
b0 $#
0&#
b0 ,#
b0 5#
#1028
b110 /"
1'#
b11 (#
b1 5#
b111 8#
#1029
b0 =
b0 -"
b0 /"
0'#
b10 (#
b0 5#
b0 8#
b0 >#
#1035
b10110010001000001100000000001 /"
#1036
b0 /"
#1044
b10111100101100101111111111101000 /"
#1045
b0 /"
#1053
b10000111000000000000000000000 /"
#1054
b0 /"
#1062
b11101000011100110000000000100100 /"
#1063
b0 /"
#1067
b1001 Q"
1##
b1 $#
b10 ,#
b1 5#
b110 >#
#1071
b110000011000110000000000000001 /"
#1072
b0 /"
#1074
b11 $#
1&#
#1075
b1 =
b1 -"
0##
b0 $#
0&#
b0 ,#
b0 5#
#1078
b110 /"
1'#
b11 (#
b1 5#
b111 8#
#1079
b0 =
b0 -"
b0 /"
0'#
b10 (#
b0 5#
b0 8#
b0 >#
#1085
b11111000011100110000000000100100 /"
#1086
b0 /"
#1090
b111 Q"
b1 u"
1w"
b1 y"
1{"
b10 /#
b1 5#
b101 N#
#1094
b11101000100100110000000000100100 /"
#1095
b0 /"
#1097
b11 u"
1x"
b11 y"
1|"
b1 ;#
#1098
b1 b
b1 )"
b0 u"
0w"
0x"
b0 y"
0{"
0|"
1}"
b11 ~"
b0 /#
b10 2#
b0 ;#
#1099
b0 b
b0 )"
0}"
b10 ~"
b0 2#
b0 5#
b0 N#
#1102
b110 Q"
1##
b1 $#
b10 ,#
b1 5#
b110 >#
#1105
b110000011000000000000000001001 /"
#1106
b0 /"
#1108
b11 $#
1&#
#1109
b1 =
b1 -"
0##
b0 $#
0&#
b0 ,#
b0 5#
#1112
b111 /"
1'#
b11 (#
b1 5#
b111 8#
#1113
b0 =
b0 -"
b0 /"
0'#
b10 (#
b0 5#
b0 8#
b0 >#
#1119
b10110010001000001100000000001 /"
#1120
b0 /"
#1128
b10111100101100101111111111101000 /"
#1129
b0 /"
#1137
b10000111000000000000000000000 /"
#1138
b0 /"
#1146
b11101000011100110000000000100100 /"
#1147
b0 /"
#1151
b1001 Q"
1##
b1 $#
b10 ,#
b1 5#
b110 >#
#1155
b110000011000110000000000000001 /"
#1156
b0 /"
#1158
b11 $#
1&#
#1159
b1 =
b1 -"
0##
b0 $#
0&#
b0 ,#
b0 5#
#1162
b111 /"
1'#
b11 (#
b1 5#
b111 8#
#1163
b0 =
b0 -"
b0 /"
0'#
b10 (#
b0 5#
b0 8#
b0 >#
#1169
b11111000011100110000000000100100 /"
#1170
b0 /"
#1174
b1000 Q"
b1 u"
1w"
b1 y"
1{"
b10 /#
b1 5#
b101 N#
#1178
b11101000100100110000000000100100 /"
#1179
b0 /"
#1181
b11 u"
1x"
b11 y"
1|"
b1 ;#
#1182
b1 b
b1 )"
b0 u"
0w"
0x"
b0 y"
0{"
0|"
1}"
b11 ~"
b0 /#
b10 2#
b0 ;#
#1183
b0 b
b0 )"
0}"
b10 ~"
b0 2#
b0 5#
b0 N#
#1186
b111 Q"
1##
b1 $#
b10 ,#
b1 5#
b110 >#
#1189
b110000011000000000000000001001 /"
#1190
b0 /"
#1192
b11 $#
1&#
#1193
b1 =
b1 -"
0##
b0 $#
0&#
b0 ,#
b0 5#
#1196
b1000 /"
1'#
b11 (#
b1 5#
b111 8#
#1197
b0 =
b0 -"
b0 /"
0'#
b10 (#
b0 5#
b0 8#
b0 >#
#1203
b10110010001000001100000000001 /"
#1204
b0 /"
#1212
b10111100101100101111111111101000 /"
#1213
b0 /"
#1221
b10000111000000000000000000000 /"
#1222
b0 /"
#1230
b11101000011100110000000000100100 /"
#1231
b0 /"
#1235
b1001 Q"
1##
b1 $#
b10 ,#
b1 5#
b110 >#
#1239
b110000011000110000000000000001 /"
#1240
b0 /"
#1242
b11 $#
1&#
#1243
b1 =
b1 -"
0##
b0 $#
0&#
b0 ,#
b0 5#
#1246
b1000 /"
1'#
b11 (#
b1 5#
b111 8#
#1247
b0 =
b0 -"
b0 /"
0'#
b10 (#
b0 5#
b0 8#
b0 >#
#1253
b11111000011100110000000000100100 /"
#1254
b0 /"
#1258
b1 u"
1w"
b1 y"
1{"
b10 /#
b1 5#
b101 N#
#1262
b11101000100100110000000000100100 /"
#1263
b0 /"
#1265
b11 u"
1x"
b11 y"
1|"
b1 ;#
#1266
b1 b
b1 )"
b0 u"
0w"
0x"
b0 y"
0{"
0|"
1}"
b11 ~"
b0 /#
b10 2#
b0 ;#
#1267
b0 b
b0 )"
0}"
b10 ~"
b0 2#
b0 5#
b0 N#
#1270
b1000 Q"
1##
b1 $#
b10 ,#
b1 5#
b110 >#
#1273
b110000011000000000000000001001 /"
#1274
b0 /"
#1276
b11 $#
1&#
#1277
b1 =
b1 -"
0##
b0 $#
0&#
b0 ,#
b0 5#
#1280
b1001 /"
1'#
b11 (#
b1 5#
b111 8#
#1281
b0 =
b0 -"
b0 /"
0'#
b10 (#
b0 5#
b0 8#
b0 >#
#1287
b10110010001000001100000000001 /"
#1288
b0 /"
#1296
b10111100101100101111111111101000 /"
#1297
b0 /"
#1305
b10000111000000000000000000000 /"
#1306
b0 /"
#1314
b11101000011100110000000000100100 /"
#1315
b0 /"
#1319
b1001 Q"
1##
b1 $#
b10 ,#
b1 5#
b110 >#
#1323
b110000011000110000000000000001 /"
#1324
b0 /"
#1326
b11 $#
1&#
#1327
b1 =
b1 -"
0##
b0 $#
0&#
b0 ,#
b0 5#
#1330
b1001 /"
1'#
b11 (#
b1 5#
b111 8#
#1331
b0 =
b0 -"
b0 /"
0'#
b10 (#
b0 5#
b0 8#
b0 >#
#1337
b11111000011100110000000000100100 /"
#1338
b0 /"
#1342
b1010 Q"
b1 u"
1w"
b1 y"
1{"
b10 /#
b1 5#
b101 N#
#1346
b11101000100100110000000000100100 /"
#1347
b0 /"
#1349
b11 u"
1x"
b11 y"
1|"
b1 ;#
#1350
b1 b
b1 )"
b0 u"
0w"
0x"
b0 y"
0{"
0|"
1}"
b11 ~"
b0 /#
b10 2#
b0 ;#
#1351
b0 b
b0 )"
0}"
b10 ~"
b0 2#
b0 5#
b0 N#
#1354
b1001 Q"
1##
b1 $#
b10 ,#
b1 5#
b110 >#
#1357
b110000011000000000000000001001 /"
#1358
b0 /"
#1360
b11 $#
1&#
#1361
b1 =
b1 -"
0##
b0 $#
0&#
b0 ,#
b0 5#
#1364
b1010 /"
1'#
b11 (#
b1 5#
b111 8#
#1365
b0 =
b0 -"
b0 /"
0'#
b10 (#
b0 5#
b0 8#
b0 >#
#1371
b10110010001000001100000000001 /"
#1372
b0 /"
#1380
b10111100101100101111111111101000 /"
#1381
b0 /"
